<svg width="26" height="26" viewBox="0 0 26 26" fill="none" xmlns="http://www.w3.org/2000/svg">
    <path d="M7.7601 14.794C8.41198 15.6773 9.16103 16.4584 10.1287 17.011C11.2245 17.6373 12.4043 17.8262 13.6486 17.7686C14.2299 17.7408 14.4048 17.5892 14.4316 17.0099C14.4496 16.6131 14.4955 16.2173 14.6908 15.8607C14.8829 15.511 15.1742 15.4448 15.5103 15.6624C15.6776 15.7723 15.8185 15.9099 15.9519 16.0571C16.2794 16.4146 16.5965 16.7848 16.9357 17.1306C17.3623 17.5649 17.8682 17.8208 18.5029 17.7686L20.9622 17.7697C21.358 17.7429 21.5638 17.2577 21.3366 16.8146C21.1766 16.5053 20.9666 16.2301 20.7446 15.9631C20.242 15.3594 19.6498 14.8449 19.0899 14.2988C18.5852 13.806 18.5532 13.52 18.9586 12.9514C19.4023 12.3303 19.8781 11.7339 20.3252 11.1162C20.7423 10.5391 21.1703 9.96276 21.3887 9.27256C21.5286 8.83196 21.4049 8.63784 20.9548 8.55994C20.8769 8.54717 20.7959 8.54717 20.717 8.54717L18.0409 8.54382C17.7113 8.53858 17.53 8.68266 17.4136 8.97478C17.2557 9.36972 17.0936 9.76445 16.9055 10.1443C16.4811 11.0085 16.0061 11.8439 15.3404 12.5502C15.1932 12.7058 15.0299 12.9033 14.7847 12.8222C14.4785 12.7102 14.3878 12.2047 14.3931 12.034L14.3908 8.94504C14.3313 8.50466 14.2329 8.30719 13.7946 8.22154H11.0151C10.6451 8.22154 10.4583 8.36582 10.2598 8.59722C10.1467 8.73187 10.1113 8.81814 10.3463 8.86296C10.807 8.95028 11.0685 9.2491 11.1368 9.71127C11.2467 10.4507 11.2392 11.193 11.1753 11.9345C11.1571 12.1511 11.1198 12.3668 11.0342 12.5695C10.8999 12.8884 10.6822 12.9525 10.3974 12.7563C10.1404 12.5791 9.95908 12.3295 9.78067 12.0788C9.11391 11.1365 8.58265 10.1211 8.14834 9.05394C8.02353 8.74548 7.807 8.5589 7.48054 8.55345C6.67809 8.54068 5.8748 8.53879 5.07131 8.5545C4.58904 8.56309 4.44497 8.79783 4.64244 9.23633C5.5163 11.1813 6.48941 13.0718 7.7601 14.794Z" fill="black"/>
    <rect x="0.5" y="0.5" width="25" height="25" stroke="black"/>
</svg>
